{
  "seq_tempo_ms": 151515,
  "seq_bpm": 99,
  "arp_speed": 0,
  "arp_length": 9,
  "arp_volume_fade": 0,
  "arp_style": 0,
  "seq_chord_vel": 59,
  "seq_chord_dexed_inst": 0,
  "seq_transpose": 0,
  "chord_key_ammount": 6,
  "seq_oct_shift": -1,
  "seq_element_shift": 3,
  "COLOR_SYSTEXT": 65535,
  "COLOR_SYSTEXT_ACCENT": 5530,
  "COLOR_BACKGROUND": 0,
  "COLOR_INSTR": 31677,
  "COLOR_CHORDS": 58106,
  "COLOR_DRUMS": 65103,
  "COLOR_PITCHSMP": 5530,
  "track_type": [
    0,
    0,
    2,
    1,
    0,
    0,
    0,
    0
  ],
  "content_type": [
    0,
    0,
    0,
    0,
    0,
    1,
    1,
    1,
    1,
    1,
    0,
    0,
    0,
    0,
    0,
    0,
    0,
    0,
    0,
    0,
    0,
    0,
    0,
    0
  ],
  "seq_inst_dexed": [
    0,
    0,
    0,
    1,
    1,
    0,
    0,
    0
  ],
  "seq_name": [
    67,
    108,
    101,
    97,
    114,
    67,
    111,
    97,
    115,
    116,
    0,
    0,
    0,
    0,
    0,
    0,
    0,
    0,
    0,
    0,
    0,
    0,
    0
  ]
}
