{
  "seq_data": [
    72,
    78,
    78,
    78,
    78,
    74,
    74,
    72,
    72,
    78,
    78,
    78,
    78,
    78,
    78,
    78,
    40,
    0,
    40,
    0,
    43,
    45,
    0,
    40,
    0,
    40,
    43,
    45,
    48,
    47,
    45,
    43,
    45,
    0,
    40,
    0,
    43,
    45,
    40,
    0,
    0,
    40,
    43,
    45,
    48,
    47,
    45,
    43,
    50,
    0,
    50,
    0,
    48,
    50,
    48,
    50,
    0,
    45,
    48,
    50,
    0,
    45,
    48,
    50,
    53,
    0,
    53,
    0,
    41,
    0,
    53,
    41,
    53,
    53,
    0,
    41,
    0,
    41,
    53,
    41,
    69,
    130,
    130,
    130,
    130,
    0,
    0,
    0,
    0,
    0,
    0,
    0,
    64,
    130,
    130,
    0,
    71,
    130,
    130,
    130,
    130,
    0,
    0,
    0,
    72,
    130,
    130,
    0,
    71,
    130,
    130,
    0,
    69,
    64,
    69,
    64,
    69,
    64,
    69,
    64,
    69,
    64,
    69,
    64,
    69,
    64,
    69,
    64,
    69,
    130,
    130,
    130,
    0,
    0,
    65,
    72,
    130,
    130,
    0,
    60,
    65,
    67,
    69,
    72,
    0,
    0,
    0,
    0,
    0,
    0,
    0,
    0,
    0,
    0,
    0,
    0,
    0,
    0,
    43,
    45,
    0,
    0,
    57,
    0,
    57,
    57,
    0,
    0,
    0,
    0,
    57,
    0,
    57,
    57,
    0,
    0,
    0,
    0,
    50,
    0,
    50,
    50,
    0,
    0,
    0,
    0,
    50,
    0,
    50,
    50,
    0,
    0,
    69,
    130,
    130,
    130,
    0,
    0,
    0,
    0,
    0,
    0,
    0,
    0,
    0,
    0,
    0,
    0,
    64,
    130,
    0,
    0,
    0,
    0,
    0,
    0,
    69,
    130,
    0,
    0,
    0,
    0,
    67,
    130,
    69,
    130,
    0,
    0,
    0,
    0,
    0,
    0,
    0,
    0,
    0,
    0,
    74,
    0,
    72,
    0,
    72,
    130,
    67,
    130,
    0,
    0,
    0,
    0,
    0,
    0,
    0,
    0,
    69,
    0,
    67,
    0,
    45,
    0,
    45,
    0,
    43,
    0,
    45,
    0,
    108,
    0,
    57,
    45,
    57,
    45,
    57,
    48,
    41,
    0,
    41,
    0,
    36,
    0,
    41,
    0,
    108,
    0,
    53,
    41,
    53,
    41,
    53,
    48,
    49,
    0,
    0,
    0,
    49,
    0,
    0,
    0,
    49,
    0,
    0,
    0,
    49,
    0,
    0,
    0,
    69,
    0,
    0,
    0,
    0,
    0,
    0,
    0,
    0,
    0,
    0,
    0,
    0,
    0,
    0,
    0,
    45,
    0,
    0,
    0,
    0,
    0,
    0,
    0,
    0,
    0,
    0,
    0,
    0,
    0,
    0,
    0,
    0,
    0,
    0,
    0,
    0,
    0,
    0,
    0,
    0,
    0,
    0,
    0,
    0,
    0,
    0,
    0,
    0,
    0,
    0,
    0,
    0,
    0,
    0,
    0,
    0,
    0,
    0,
    0,
    0,
    0,
    0,
    0,
    0,
    0,
    0,
    0,
    0,
    0,
    0,
    0,
    0,
    0,
    0,
    0,
    0,
    0,
    0,
    0
  ]
}