{
  "sound_intensity": 0,
  "wave": 0,
  "coarse": 0,
  "detune": 0,
  "trigger_noise_with_osc": false,
  "env_attack": 0,
  "env_decay": 0,
  "env_sustain": 13,
  "env_release": 22,
  "filter_osc_mode": 0,
  "filter_osc_freq_from": 0,
  "filter_osc_freq_to": 0,
  "filter_osc_speed": 0,
  "filter_osc_resonance": 0,
  "noise_vol": 0,
  "noise_decay": 0,
  "filter_noise_freq_from": 0,
  "filter_noise_freq_to": 0,
  "filter_noise_speed": 0,
  "pwm_from": 0,
  "pwm_to": 0,
  "pwm_speed": 0,
  "rev_send": 0,
  "chorus_send": 0,
  "delay_send": 0,
  "midi_channel": 0,
  "pan": 0
}